…
This will allow us to assess the net sentiment by chapter and by sentence. First, we need to track the sentence numbers and then I create an index that tracks the progress through each chapter. I then unnest the sentences by words. This gives us a tibble that has individual words by sentence within each chapter. Now, as before, I join the AFINN lexicon and compute the net sentiment score for each chapter. We can see that the most positive sentences are half way through chapter 9, towards the end of chapter 17, early in chapter 4, etc.

book_sent <- ps_sentences %>%
        group_by(chapter) %>%
        mutate(sentence_num = 1:n(),
               index = round(sentence_num / n(), 2)) %>%
        unnest_tokens(word, sentence) %>%
        inner_join(get_sentiments("afinn")) %>%
        group_by(chapter, index) %>%
        summarise(sentiment = sum(score, na.rm = TRUE)) %>%
        arrange(desc(sentiment))

book_sent
## Source: local data frame [1,401 x 3]
## Groups: chapter [17]
## 
##    chapter index sentiment
##      <int> <dbl>     <int>
## 1        9  0.47        14
## 2       17  0.91        13
## 3        4  0.11        12
## 4       12  0.45        12
## 5       17  0.54        12
## 6        1  0.25        11
## 7       10  0.04        11
## 8       10  0.16        11
## 9       11  0.48        11
## 10      12  0.70        11
## # ... with 1,391 more rows
…
