…
With the exception of said harry the most common bi-grams include very common words that do not provide much context. We can filter out these common stop words to find the most common bi-grams that provide context. The results show pairs of words that are far more contextual than our previous set.

series %>%
        separate(bigram, c("word1", "word2"), sep = " ") %>%
        filter(!word1 %in% stop_words$word,
               !word2 %in% stop_words$word) %>%
        count(word1, word2, sort = TRUE)
## Source: local data frame [89,120 x 3]
## Groups: word1 [14,752]
## 
##           word1      word2     n
##           <chr>      <chr> <int>
## 1     professor mcgonagall   578
## 2         uncle     vernon   386
## 3         harry     potter   349
## 4         death     eaters   346
## 5         harry     looked   316
## 6         harry        ron   302
## 7          aunt    petunia   206
## 8  invisibility      cloak   192
## 9     professor  trelawney   177
## 10         dark       arts   176
## # ... with 89,110 more rows
…
Analyzing n-grams

We can also follow a similar process as performed in the term vs.document frequency tutorial to identify the tf-idf of n-grams (or bi-grams in our ongoing example).

(bigram_tf_idf <- series %>%
        count(book, bigram, sort = TRUE) %>%
        bind_tf_idf(bigram, book, n) %>%
        arrange(desc(tf_idf))
)
## Source: local data frame [523,420 x 6]
## Groups: book [7]
## 
##                    book             bigram     n           tf       idf
##                  <fctr>              <chr> <int>        <dbl>     <dbl>
## 1        Goblet of Fire          mr crouch   152 0.0007923063 1.2527630
## 2     Half-Blood Prince      said slughorn    84 0.0004904995 1.9459101
## 3   Prisoner of Azkaban    professor lupin   107 0.0010165981 0.8472979
## 4  Order of the Phoenix professor umbridge   173 0.0006686636 1.2527630
## 5       Deathly Hallows                c i    83 0.0004173602 1.9459101
## 6       Deathly Hallows              c but    62 0.0003117630 1.9459101
## 7       Deathly Hallows          the elder    60 0.0003017061 1.9459101
## 8       Deathly Hallows         elder wand    58 0.0002916493 1.9459101
## 9    Chamber of Secrets      said lockhart    38 0.0004450587 1.2527630
## 10  Prisoner of Azkaban         said lupin    97 0.0009215889 0.5596158
## # ... with 523,410 more rows, and 1 more variables: tf_idf <dbl>
…
The sentiment analysis approch used in the sentiment analysis tutorial simply counted the appearance of positive or negative words, according to a specified lexicon (i.e.AFINN, bing, nrc). Unfortunately, this approach scores the sentiments of words merely on their presence rather than on context. For example, the words happy and like will be counted as positive, even in a sentence like Im not happy and I dont like it!

By performing sentiment analysis on our bi-gram data, we can examine how often sentiment-associated words are preceded by not or other negating words.

series %>%
        separate(bigram, c("word1", "word2"), sep = " ") %>%
        filter(word1 == "not") %>%
        count(book, word1, word2, sort = TRUE)
## Source: local data frame [2,106 x 4]
## Groups: book, word1 [7]
## 
##                    book word1 word2     n
##                  <fctr> <chr> <chr> <int>
## 1  Order of the Phoenix   not    to    90
## 2     Half-Blood Prince   not    to    79
## 3       Deathly Hallows   not    to    77
## 4        Goblet of Fire   not    to    45
## 5     Half-Blood Prince   not    be    42
## 6  Order of the Phoenix   not    be    39
## 7  Order of the Phoenix   not  have    37
## 8       Deathly Hallows   not    be    35
## 9       Deathly Hallows   not  know    35
## 10   Chamber of Secrets   not    to    34
## # ... with 2,096 more rows

We could use this to ignore or even reverse their contribution to the sentiment score. Here well use the AFINN lexicon for the sentiment analysis, which gives a numeric sentiment score for each word. We can assess the most frequent words that have a sentiment score and were preceded by not.

AFINN <- get_sentiments("afinn")

(nots <- series %>%
        separate(bigram, c("word1", "word2"), sep = " ") %>%
        filter(word1 == "not") %>%
        inner_join(AFINN, by = c(word2 = "word")) %>%
        count(word2, score, sort = TRUE) 
)
## Source: local data frame [201 x 3]
## Groups: word2 [201]
## 
##     word2 score     n
##     <chr> <int> <int>
## 1    want     1    81
## 2    help     2    45
## 3    like     2    29
## 4    care     2    22
## 5     bad    -3    14
## 6    wish     1    14
## 7  stupid    -2    12
## 8    stop    -1    11
## 9  matter     1    10
## 10   dead    -3     9
## # ... with 191 more rows
…
