…
```r
terms <- Terms(ps_dtm)
head(terms)
## [1] "　　a"                   "　　aaaargh　　quirrell"
## [3] "　　aha"                 "　　all"                
## [5] "　　and"                 "　　as"
```

If we wanted to analyze this data with tidy tools, we would first need to turn it into a data frame with one-token-per-document-per-row. The broom package introduced the `tidy()` function, which takes a non-tidy object and turns it into a tidy data frame. The `tidytext` package implements this method for DocumentTermMatrix objects.


```r
ps_tidy <- tidy(ps_dtm)
ps_tidy
## # A tibble: 20,435 × 3
##    document           term count
##       <chr>          <chr> <dbl>
## 1         1 　　dumbledore     1
## 2         1         　　my     1
## 3         1        　　yes     1
## 4         1           able     2
## 5         1         across     2
## 6         1            act     1
## 7         1         acting     1
## 8         1       admiring     1
## 9         1         affect     1
## 10        1      afternoon     1
## # ... with 20,425 more rows
```
…
